src/build/fsm_teclado_tb.vcd
$date
	Mon May 11 12:25:59 2026
$end
$version
	Icarus Verilog
$end
$timescale
	1ps
$end
$scope module fsm_teclado_tb $end
$var wire 1 ! ejecutar_suma $end
$var wire 1 " capturando_B $end
$var wire 1 # capturando_A $end
$var reg 1 $ clk $end
$var reg 1 % rst_n $end
$var reg 4 & tecla [3:0] $end
$var reg 1 ' tecla_valida $end
$scope module dut $end
$var wire 1 $ clk $end
$var wire 1 % rst_n $end
$var wire 4 ( tecla [3:0] $end
$var wire 1 ' tecla_valida $end
$var parameter 32 ) MAX_DIGITOS $end
$var reg 1 # capturando_A $end
$var reg 1 " capturando_B $end
$var reg 1 ! ejecutar_suma $end
$var reg 2 * estado_actual [1:0] $end
$var reg 2 + estado_siguiente [1:0] $end
$upscope $end
$scope task presionar_tecla $end
$var reg 4 , valor [3:0] $end
$upscope $end
$upscope $end
$enddefinitions $end
$comment Show the parameter values. $end
$dumpall
b11 )
$end
#0
$dumpvars
bx ,
b0 +
b0 *
b0 (
0'
b0 &
0%
0$
0#
0"
0!
$end
#18500
1$
#37000
0$
#55500
1$
#74000
0$
#92500
1$
#111000
0$
#129500
1$
#148000
0$
#166500
1%
1$
#185000
0$
#203500
1$
#222000
0$
#240500
b1 ,
1$
#259000
0$
#277500
b1 +
1'
b1 &
b1 (
1$
#296000
0$
#314500
1#
b1 *
b1 +
0'
1$
#333000
0$
#351500
1$
#370000
0$
#388500
1$
#407000
0$
#425500
b10 ,
1$
#444000
0$
#462500
1'
b10 &
b10 (
1$
#481000
0$
#499500
0'
1$
#518000
0$
#536500
1$
#555000
0$
#573500
1$
#592000
0$
#610500
b11 ,
1$
#629000
0$
#647500
1'
b11 &
b11 (
1$
#666000
0$
#684500
0'
1$
#703000
0$
#721500
1$
#740000
0$
#758500
1$
#777000
0$
#795500
b1010 ,
1$
#814000
0$
#832500
b10 +
1'
b1010 &
b1010 (
1$
#851000
0$
#869500
1"
0#
b10 *
b10 +
0'
1$
#888000
0$
#906500
1$
#925000
0$
#943500
1$
#962000
0$
#980500
b100 ,
1$
#999000
0$
#1017500
1'
b100 &
b100 (
1$
#1036000
0$
#1054500
0'
1$
#1073000
0$
#1091500
1$
#1110000
0$
#1128500
1$
#1147000
0$
#1165500
b101 ,
1$
#1184000
0$
#1202500
1'
b101 &
b101 (
1$
#1221000
0$
#1239500
0'
1$
#1258000
0$
#1276500
1$
#1295000
0$
#1313500
1$
#1332000
0$
#1350500
b110 ,
1$
#1369000
0$
#1387500
1'
b110 &
b110 (
1$
#1406000
0$
#1424500
0'
1$
#1443000
0$
#1461500
1$
#1480000
0$
#1498500
1$
#1517000
0$
#1535500
b1011 ,
1$
#1554000
0$
#1572500
b11 +
1'
b1011 &
b1011 (
1$
#1591000
0$
#1609500
1!
0"
b11 *
b11 +
0'
1$
#1628000
0$
#1646500
1$
#1665000
0$
#1683500
1$
#1702000
0$
#1720500
1$
#1739000
0$
#1757500
b1100 ,
1$
#1776000
0$
#1794500
b0 +
1'
b1100 &
b1100 (
1$
#1813000
0$
#1831500
0!
b0 *
b0 +
0'
1$
